tc2899_hw3_rmd
…
For each year and state, compute the average proportion in each response category (taking the average across locations in a state)._

brfss_avg_prop = brfss %>%
  spread(key = "Overall Health Response", value = "Overall Health Value") %>% 
  group_by(year, state) %>%
  summarize(mean_excellent = mean(Excellent), 
            mean_vgood = mean(`Very good`),
            mean_good = mean(Good),
            mean_fair = mean(Fair),
            mean_poor = mean(Poor))
brfss_avg_prop

## # A tibble: 443 x 7
## # Groups:   year [?]
##     year state mean_excellent mean_vgood mean_good mean_fair mean_poor
##    <int> <chr>          <dbl>      <dbl>     <dbl>     <dbl>     <dbl>
##  1  2002 AK              27.9       33.7      23.8      8.6       5.9 
##  2  2002 AL              18.5       30.9      32.7     12.1       5.9 
##  3  2002 AR              24.1       29.3      29.9     12.5       4.2 
##  4  2002 AZ              24.1       33.4      29.4      8.9       4.25
##  5  2002 CA              22.7       29.8      28.7     14.3       4.5 
##  6  2002 CO              23.1       32.5      30.3     11.2       2.92
##  7  2002 CT              29.1       33.8      25.0      8.73      3.43
##  8  2002 DC              29.3       31.8      28.1      8.3       2.4 
##  9  2002 DE              20.9       34.2      29.8     11.1       4   
## 10  2002 FL              25.7       31.1      28.9      9.67      4.53
## # ... with 433 more rows
…
## Problem 2: Instacart

Step 1: Import the dataset using the p8105 library(done in problem 1):

instacart = instacart %>%
  janitor::clean_names() 

instacart

## # A tibble: 1,384,617 x 15
##    order_id product_id add_to_cart_ord~ reordered user_id eval_set
##       <int>      <int>            <int>     <int>   <int> <chr>   
##  1        1      49302                1         1  112108 train   
##  2        1      11109                2         1  112108 train   
##  3        1      10246                3         0  112108 train   
##  4        1      49683                4         0  112108 train   
##  5        1      43633                5         1  112108 train   
##  6        1      13176                6         0  112108 train   
##  7        1      47209                7         0  112108 train   
##  8        1      22035                8         1  112108 train   
##  9       36      39612                1         0   79431 train   
## 10       36      19660                2         1   79431 train   
## # ... with 1,384,607 more rows, and 9 more variables: order_number <int>,
## #   order_dow <int>, order_hour_of_day <int>,
## #   days_since_prior_order <int>, product_name <chr>, aisle_id <int>,
## #   department_id <int>, aisle <chr>, department <chr>
…
The goal is to do some exploration of this dataset. To that end, write a short description of the dataset, noting the size and structure of the data, describing some key variables, and giving illstrative examples of observations. 

The size of the dataset is dim(instacart). This set contains information about orders (time ordered, day of week, ID number), products ordered (name of product, department), and customers (order frequency).

Step 3: Questions

How many aisles are there, and which aisles are the most items ordered from?

#grouping orders by isle
instacart %>%
    group_by(aisle_id) %>%
    summarize(n = n())

## # A tibble: 134 x 2
##    aisle_id     n
##       <int> <int>
##  1        1  2936
##  2        2  3873
##  3        3 17449
##  4        4  9917
##  5        5  2905
##  6        6  1795
##  7        7  1526
##  8        8  1501
##  9        9  9736
## 10       10   448
## # ... with 124 more rows
…
pop_aisles = instacart %>%
  filter(aisle == 'baking ingredients' | aisle == 'dog food care' | aisle == 'packaged vegetables fruits') %>%
  select(product_name, aisle) %>% 
  group_by(aisle, product_name) %>%
  summarise(n = n()) %>%
  arrange(desc(n)) #to sort highest to lowest the #(n) of each product within aisles

pop_aisles

## # A tibble: 1,444 x 3
## # Groups:   aisle [3]
##    aisle                      product_name                          n
##    <chr>                      <chr>                             <int>
##  1 packaged vegetables fruits Organic Baby Spinach               9784
##  2 packaged vegetables fruits Organic Raspberries                5546
##  3 packaged vegetables fruits Organic Blueberries                4966
##  4 packaged vegetables fruits Seedless Red Grapes                4059
##  5 packaged vegetables fruits Organic Grape Tomatoes             3823
##  6 packaged vegetables fruits Organic Baby Carrots               3597
##  7 packaged vegetables fruits Organic Baby Arugula               2923
##  8 packaged vegetables fruits Organic Peeled Whole Baby Carrots  2460
##  9 packaged vegetables fruits Red Raspberries                    1493
## 10 packaged vegetables fruits Clementines, Bag                   1478
## # ... with 1,434 more rows
…
## Problem 3: NY NOAA

Step 1: Import the dataset using the p8105 library(done in problem 1):

ny_noaa

## # A tibble: 2,595,176 x 7
##    id          date        prcp  snow  snwd tmax  tmin 
##    <chr>       <date>     <int> <int> <int> <chr> <chr>
##  1 US1NYAB0001 2007-11-01    NA    NA    NA <NA>  <NA> 
##  2 US1NYAB0001 2007-11-02    NA    NA    NA <NA>  <NA> 
##  3 US1NYAB0001 2007-11-03    NA    NA    NA <NA>  <NA> 
##  4 US1NYAB0001 2007-11-04    NA    NA    NA <NA>  <NA> 
##  5 US1NYAB0001 2007-11-05    NA    NA    NA <NA>  <NA> 
##  6 US1NYAB0001 2007-11-06    NA    NA    NA <NA>  <NA> 
##  7 US1NYAB0001 2007-11-07    NA    NA    NA <NA>  <NA> 
##  8 US1NYAB0001 2007-11-08    NA    NA    NA <NA>  <NA> 
##  9 US1NYAB0001 2007-11-09    NA    NA    NA <NA>  <NA> 
## 10 US1NYAB0001 2007-11-10    NA    NA    NA <NA>  <NA> 
## # ... with 2,595,166 more rows
…
